Hardware-I2CyouToo-Easy/capture.vcd
$timescale 1ns $end
$scope module logic $end
$var wire 1 ! D2 $end
$var wire 1 " D3 $end
$upscope $end
$enddefinitions $end
#0
0!
#0
1"
#123500
1!
#50149125
0"
#50154125
0!
#50158187
1"
#50163187
1!
#50168187
0!
#50173187
1!
#50178187
0!
#50178187
0"
#50183187
1!
#50188187
0!
#50188187
1"
#50193187
1!
#50198187
0!
#50198187
0"
#50203187
1!
#50208187
0!
#50213187
1!
#50218187
0!
#50223187
1!
#50228187
0!
#50233187
1!
#50238187
0!
#50243187
1!
#50248187
1"
#50248187
0!
#50253187
0"
#50258187
1!
#50263187
0!
#50268187
1!
#50273187
0!
#50278187
1!
#50283187
0!
#50288187
1!
#50293187
0!
#50298187
1!
#50303187
0!
#50308187
1!
#50313187
0!
#50318187
1!
#50323187
0!
#50328187
1!
#50333187
0!
#50338187
1!
#50343187
1"
#50343187
0!
#50347625
0"
#50352625
1!
#50357625
0!
#50357625
1"
#50362625
1!
#50367625
0!
#50367625
0"
#50372625
1!
#50377625
0!
#50382625
1!
#50387625
0!
#50392625
1!
#50397625
0!
#50397625
1"
#50402625
1!
#50407625
0!
#50412625
1!
#50417625
0!
#50417625
0"
#50422625
1!
#50427625
0!
#50432625
1!
#50437625
1"
#50437625
0!
#50441750
0"
#50446750
1!
#50451750
1"
#51491187
0"
#51496187
0!
#51500250
1"
#51505250
1!
#51510250
0!
#51515250
1!
#51520250
0!
#51520250
0"
#51525250
1!
#51530250
0!
#51530250
1"
#51535250
1!
#51540250
0!
#51540250
0"
#51545250
1!
#51550250
0!
#51555250
1!
#51560250
0!
#51565250
1!
#51570250
0!
#51575250
1!
#51580250
0!
#51585250
1!
#51590250
1"
#51590250
0!
#51595250
0"
#51600250
1!
#51605250
0!
#51610250
1!
#51615250
0!
#51620250
1!
#51625250
0!
#51630250
1!
#51635250
0!
#51640250
1!
#51645250
0!
#51650250
1!
#51655250
0!
#51660250
1!
#51665250
0!
#51665250
1"
#51670250
1!
#51675250
0"
#51675250
0!
#51680250
1!
#51685250
1"
#51685250
0!
#51689687
0"
#51694687
1!
#51699687
0!
#51699687
1"
#51704687
1!
#51709687
0!
#51709687
0"
#51714687
1!
#51719687
0!
#51724687
1!
#51729687
0!
#51734687
1!
#51739687
0!
#51744687
1!
#51749687
0!
#51749687
1"
#51754687
1!
#51759687
0!
#51764687
1!
#51769687
0"
#51769687
0!
#51774687
1!
#51779687
1"
#51779687
0!
#51783812
0"
#51788812
1!
#51793812
1"
#52833812
0"
#52838812
0!
#52842875
1"
#52847875
1!
#52852875
0!
#52857875
1!
#52862875
0!
#52862875
0"
#52867875
1!
#52872875
0!
#52872875
1"
#52877875
1!
#52882875
0!
#52882875
0"
#52887875
1!
#52892875
0!
#52897875
1!
#52902875
0!
#52907875
1!
#52912875
0!
#52917875
1!
#52922875
0!
#52927875
1!
#52932875
1"
#52932875
0!
#52937875
0"
#52942875
1!
#52947875
0!
#52952875
1!
#52957875
0!
#52962875
1!
#52967875
0!
#52972875
1!
#52977875
0!
#52982875
1!
#52987875
0!
#52992875
1!
#52997875
0!
#52997875
1"
#53002875
1!
#53007875
0!
#53007875
0"
#53012875
1!
#53017875
0!
#53022875
1!
#53027875
1"
#53027875
0!
#53032312
0"
#53037312
1!
#53042312
0!
#53042312
1"
#53047312
1!
#53052312
0!
#53052312
0"
#53057312
1!
#53062312
0!
#53062312
1"
#53067312
1!
#53072312
0!
#53072312
0"
#53077312
1!
#53082312
0!
#53087312
1!
#53092312
0!
#53092312
1"
#53097312
1!
#53102312
0!
#53107312
1!
#53112312
0"
#53112312
0!
#53117312
1!
#53122312
1"
#53122312
0!
#53126437
0"
#53131437
1!
#53136437
1"
#54176125
0"
#54181125
0!
#54185187
1"
#54190187
1!
#54195187
0!
#54200187
1!
#54205187
0!
#54205187
0"
#54210187
1!
#54215187
0!
#54215187
1"
#54220187
1!
#54225187
0!
#54225187
0"
#54230187
1!
#54235187
0!
#54240187
1!
#54245187
0!
#54250187
1!
#54255187
0!
#54260187
1!
#54265187
0!
#54270187
1!
#54275187
1"
#54275187
0!
#54280187
0"
#54285187
1!
#54290187
0!
#54295187
1!
#54300187
0!
#54305187
1!
#54310187
0!
#54315187
1!
#54320187
0!
#54325187
1!
#54330187
0!
#54335187
1!
#54340187
0!
#54340187
1"
#54345187
1!
#54350187
0!
#54355187
1!
#54360187
0"
#54360187
0!
#54365187
1!
#54370187
1"
#54370187
0!
#54374625
0"
#54379625
1!
#54384625
0!
#54384625
1"
#54389625
1!
#54394625
0!
#54394625
0"
#54399625
1!
#54404625
0!
#54409625
1!
#54414625
0!
#54419625
1!
#54424625
0!
#54429625
1!
#54434625
0!
#54434625
1"
#54439625
1!
#54444625
0!
#54449625
1!
#54454625
0"
#54454625
0!
#54459625
1!
#54464625
1"
#54464625
0!
#54468750
0"
#54473750
1!
#54478750
1"
#55518187
0"
#55523187
0!
#55527250
1"
#55532250
1!
#55537250
0!
#55542250
1!
#55547250
0!
#55547250
0"
#55552250
1!
#55557250
0!
#55557250
1"
#55562250
1!
#55567250
0!
#55567250
0"
#55572250
1!
#55577250
0!
#55582250
1!
#55587250
0!
#55592250
1!
#55597250
0!
#55602250
1!
#55607250
0!
#55612250
1!
#55617250
1"
#55617250
0!
#55622250
0"
#55627250
1!
#55632250
0!
#55637250
1!
#55642250
0!
#55647250
1!
#55652250
0!
#55657250
1!
#55662250
0!
#55667250
1!
#55672250
0!
#55672250
1"
#55677250
1!
#55682250
0!
#55682250
0"
#55687250
1!
#55692250
0!
#55697250
1!
#55702250
0!
#55707250
1!
#55712250
1"
#55712250
0!
#55716687
0"
#55721687
1!
#55726687
0!
#55726687
1"
#55731687
1!
#55736687
0!
#55741687
1!
#55746687
0!
#55751687
1!
#55756687
0!
#55761687
1!
#55766687
0!
#55766687
0"
#55771687
1!
#55776687
0!
#55776687
1"
#55781687
1!
#55786687
0!
#55791687
1!
#55796687
0"
#55796687
0!
#55801687
1!
#55806687
1"
#55806687
0!
#55810812
0"
#55815812
1!
#55820812
1"
#56864437
0"
#56869437
0!
#56873500
1"
#56878500
1!
#56883500
0!
#56888500
1!
#56893500
0!
#56893500
0"
#56898500
1!
#56903500
0!
#56903500
1"
#56908500
1!
#56913500
0!
#56913500
0"
#56918500
1!
#56923500
0!
#56928500
1!
#56933500
0!
#56938500
1!
#56943500
0!
#56948500
1!
#56953500
0!
#56958500
1!
#56963500
1"
#56963500
0!
#56968500
0"
#56973500
1!
#56978500
0!
#56983500
1!
#56988500
0!
#56993500
1!
#56998500
0!
#57003500
1!
#57008500
0!
#57013500
1!
#57018500
0!
#57018500
1"
#57023500
1!
#57028500
0!
#57028500
0"
#57033500
1!
#57038500
0!
#57038500
1"
#57043500
1!
#57048500
0"
#57048500
0!
#57053500
1!
#57058500
1"
#57058500
0!
#57062937
0"
#57067937
1!
#57072937
0!
#57072937
1"
#57077937
1!
#57082937
0!
#57082937
0"
#57087937
1!
#57092937
0!
#57097937
1!
#57102937
0!
#57102937
1"
#57107937
1!
#57112937
0!
#57117937
1!
#57122937
0!
#57122937
0"
#57127937
1!
#57132937
0!
#57132937
1"
#57137937
1!
#57142937
0"
#57142937
0!
#57147937
1!
#57152937
1"
#57152937
0!
#57157062
0"
#57162062
1!
#57167062
1"
#58207562
0"
#58212562
0!
#58216625
1"
#58221625
1!
#58226625
0!
#58231625
1!
#58236625
0!
#58236625
0"
#58241625
1!
#58246625
0!
#58246625
1"
#58251625
1!
#58256625
0!
#58256625
0"
#58261625
1!
#58266625
0!
#58271625
1!
#58276625
0!
#58281625
1!
#58286625
0!
#58291625
1!
#58296625
0!
#58301625
1!
#58306625
1"
#58306625
0!
#58311625
0"
#58316625
1!
#58321625
0!
#58326625
1!
#58331625
0!
#58336625
1!
#58341625
0!
#58346625
1!
#58351625
0!
#58356625
1!
#58361625
0!
#58361625
1"
#58366625
1!
#58371625
0!
#58376625
1!
#58381625
0!
#58381625
0"
#58386625
1!
#58391625
0!
#58396625
1!
#58401625
1"
#58401625
0!
#58406062
0"
#58411062
1!
#58416062
0!
#58416062
1"
#58421062
1!
#58426062
0!
#58426062
0"
#58431062
1!
#58436062
0!
#58436062
1"
#58441062
1!
#58446062
0!
#58451062
1!
#58456062
0!
#58456062
0"
#58461062
1!
#58466062
0!
#58471062
1!
#58476062
0!
#58476062
1"
#58481062
1!
#58486062
0"
#58486062
0!
#58491062
1!
#58496062
1"
#58496062
0!
#58500187
0"
#58505187
1!
#58510187
1"
#59550125
0"
#59555125
0!
#59559187
1"
#59564187
1!
#59569187
0!
#59574187
1!
#59579187
0!
#59579187
0"
#59584187
1!
#59589187
0!
#59589187
1"
#59594187
1!
#59599187
0!
#59599187
0"
#59604187
1!
#59609187
0!
#59614187
1!
#59619187
0!
#59624187
1!
#59629187
0!
#59634187
1!
#59639187
0!
#59644187
1!
#59649187
1"
#59649187
0!
#59654187
0"
#59659187
1!
#59664187
0!
#59669187
1!
#59674187
0!
#59679187
1!
#59684187
0!
#59689187
1!
#59694187
0!
#59699187
1!
#59704187
0!
#59704187
1"
#59709187
1!
#59714187
0!
#59719187
1!
#59724187
0!
#59729187
1!
#59734187
0"
#59734187
0!
#59739187
1!
#59744187
1"
#59744187
0!
#59748625
0"
#59753625
1!
#59758625
0!
#59763625
1!
#59768625
0!
#59768625
1"
#59773625
1!
#59778625
0!
#59778625
0"
#59783625
1!
#59788625
0!
#59788625
1"
#59793625
1!
#59798625
0!
#59803625
1!
#59808625
0!
#59808625
0"
#59813625
1!
#59818625
0!
#59818625
1"
#59823625
1!
#59828625
0"
#59828625
0!
#59833625
1!
#59838625
1"
#59838625
0!
#59842750
0"
#59847750
1!
#59852750
1"
#60892937
0"
#60897937
0!
#60902000
1"
#60907000
1!
#60912000
0!
#60917000
1!
#60922000
0!
#60922000
0"
#60927000
1!
#60932000
0!
#60932000
1"
#60937000
1!
#60942000
0!
#60942000
0"
#60947000
1!
#60952000
0!
#60957000
1!
#60962000
0!
#60967000
1!
#60972000
0!
#60977000
1!
#60982000
0!
#60987000
1!
#60992000
1"
#60992000
0!
#60997000
0"
#61002000
1!
#61007000
0!
#61012000
1!
#61017000
0!
#61022000
1!
#61027000
0!
#61032000
1!
#61037000
0!
#61037000
1"
#61042000
1!
#61047000
0!
#61047000
0"
#61052000
1!
#61057000
0!
#61062000
1!
#61067000
0!
#61072000
1!
#61077000
0!
#61082000
1!
#61087000
1"
#61087000
0!
#61091437
0"
#61096437
1!
#61101437
0!
#61101437
1"
#61106437
1!
#61111437
0!
#61111437
0"
#61116437
1!
#61121437
0!
#61121437
1"
#61126437
1!
#61131437
0!
#61131437
0"
#61136437
1!
#61141437
0!
#61146437
1!
#61151437
0!
#61156437
1!
#61161437
0!
#61166437
1!
#61171437
0!
#61176437
1!
#61181437
1"
#61181437
0!
#61185562
0"
#61190562
1!
#61195562
1"
#62235750
0"
#62240750
0!
#62244812
1"
#62249812
1!
#62254812
0!
#62259812
1!
#62264812
0!
#62264812
0"
#62269812
1!
#62274812
0!
#62274812
1"
#62279812
1!
#62284812
0!
#62284812
0"
#62289812
1!
#62294812
0!
#62299812
1!
#62304812
0!
#62309812
1!
#62314812
0!
#62319812
1!
#62324812
0!
#62329812
1!
#62334812
1"
#62334812
0!
#62339812
0"
#62344812
1!
#62349812
0!
#62354812
1!
#62359812
0!
#62364812
1!
#62369812
0!
#62374812
1!
#62379812
0!
#62379812
1"
#62384812
1!
#62389812
0!
#62389812
0"
#62394812
1!
#62399812
0!
#62404812
1!
#62409812
0!
#62409812
1"
#62414812
1!
#62419812
0"
#62419812
0!
#62424812
1!
#62429812
1"
#62429812
0!
#62434250
0"
#62439250
1!
#62444250
0!
#62444250
1"
#62449250
1!
#62454250
0!
#62454250
0"
#62459250
1!
#62464250
0!
#62464250
1"
#62469250
1!
#62474250
0!
#62474250
0"
#62479250
1!
#62484250
0!
#62489250
1!
#62494250
0!
#62494250
1"
#62499250
1!
#62504250
0!
#62504250
0"
#62509250
1!
#62514249
0!
#62519250
1!
#62524250
1"
#62524250
0!
#62528375
0"
#62533375
1!
#62538374
1"
#63578562
0"
#63583562
0!
#63587624
1"
#63592625
1!
#63597625
0!
#63602624
1!
#63607625
0!
#63607625
0"
#63612625
1!
#63617625
0!
#63617625
1"
#63622625
1!
#63627624
0!
#63627624
0"
#63632625
1!
#63637625
0!
#63642624
1!
#63647625
0!
#63652625
1!
#63657624
0!
#63662625
1!
#63667625
0!
#63672625
1!
#63677625
1"
#63677625
0!
#63682625
0"
#63687625
1!
#63692625
0!
#63697624
1!
#63702625
0!
#63707625
1!
#63712624
0!
#63717625
1!
#63722625
0!
#63722625
1"
#63727624
1!
#63732625
0!
#63732625
0"
#63737625
1!
#63742625
0!
#63742625
1"
#63747625
1!
#63752624
0!
#63752624
0"
#63757625
1!
#63762625
0!
#63767624
1!
#63772625
1"
#63772625
0!
#63777062
0"
#63782062
1!
#63787062
0!
#63787062
1"
#63792062
1!
#63797062
0!
#63797062
0"
#63802062
1!
#63807062
0!
#63812062
1!
#63817062
0!
#63822062
1!
#63827062
0!
#63827062
1"
#63832062
1!
#63837062
0!
#63837062
0"
#63842062
1!
#63847062
0!
#63847062
1"
#63852062
1!
#63857062
0"
#63857062
0!
#63862062
1!
#63867062
1"
#63867062
0!
#63871187
0"
#63876187
1!
#63881187
1"
#64924687
0"
#64929687
0!
#64933750
1"
#64938750
1!
#64943749
0!
#64948750
1!
#64953750
0!
#64953750
0"
#64958749
1!
#64963750
0!
#64963750
1"
#64968750
1!
#64973750
0!
#64973750
0"
#64978750
1!
#64983750
0!
#64988750
1!
#64993750
0!
#64998749
1!
#65003750
0!
#65008750
1!
#65013749
0!
#65018750
1!
#65023750
1"
#65023750
0!
#65028750
0"
#65033750
1!
#65038750
0!
#65043750
1!
#65048750
0!
#65053749
1!
#65058750
0!
#65063750
1!
#65068749
0!
#65068749
1"
#65073750
1!
#65078750
0!
#65078750
0"
#65083749
1!
#65088750
0!
#65088750
1"
#65093750
1!
#65098750
0!
#65103750
1!
#65108750
0"
#65108750
0!
#65113750
1!
#65118750
1"
#65118750
0!
#65123187
0"
#65128187
1!
#65133187
0!
#65133187
1"
#65138187
1!
#65143187
0!
#65143187
0"
#65148187
1!
#65153187
0!
#65158187
1!
#65163187
0!
#65168187
1!
#65173187
0!
#65178187
1!
#65183187
0!
#65183187
1"
#65188187
1!
#65193187
0!
#65198187
1!
#65203187
0"
#65203187
0!
#65208187
1!
#65213187
1"
#65213187
0!
#65217312
0"
#65222312
1!
#65227312
1"
#66267499
0"
#66272500
0!
#66276562
1"
#66281562
1!
#66286562
0!
#66291562
1!
#66296562
0!
#66296562
0"
#66301562
1!
#66306562
0!
#66306562
1"
#66311562
1!
#66316562
0!
#66316562
0"
#66321562
1!
#66326562
0!
#66331562
1!
#66336562
0!
#66341562
1!
#66346562
0!
#66351562
1!
#66356562
0!
#66361562
1!
#66366562
1"
#66366562
0!
#66371562
0"
#66376562
1!
#66381562
0!
#66386562
1!
#66391562
0!
#66396562
1!
#66401562
0!
#66406562
1!
#66411562
0!
#66411562
1"
#66416562
1!
#66421562
0!
#66426562
1!
#66431562
0!
#66431562
0"
#66436562
1!
#66441562
0!
#66446562
1!
#66451562
0!
#66456562
1!
#66461562
1"
#66461562
0!
#66466000
0"
#66471000
1!
#66475999
0!
#66475999
1"
#66481000
1!
#66486000
0!
#66486000
0"
#66490999
1!
#66496000
0!
#66501000
1!
#66505999
0!
#66505999
1"
#66511000
1!
#66516000
0!
#66516000
0"
#66521000
1!
#66526000
0!
#66531000
1!
#66536000
0!
#66536000
1"
#66541000
1!
#66545999
0"
#66545999
0!
#66551000
1!
#66556000
1"
#66556000
0!
#66560125
0"
#66565125
1!
#66570124
1"
#67610312
0"
#67615312
0!
#67619375
1"
#67624375
1!
#67629375
0!
#67634375
1!
#67639375
0!
#67639375
0"
#67644375
1!
#67649375
0!
#67649375
1"
#67654375
1!
#67659375
0!
#67659375
0"
#67664375
1!
#67669375
0!
#67674375
1!
#67679375
0!
#67684375
1!
#67689375
0!
#67694375
1!
#67699375
0!
#67704375
1!
#67709375
1"
#67709375
0!
#67714375
0"
#67719375
1!
#67724375
0!
#67729375
1!
#67734375
0!
#67739375
1!
#67744375
0!
#67749375
1!
#67754375
0!
#67754375
1"
#67759375
1!
#67764375
0!
#67769375
1!
#67774375
0!
#67774375
0"
#67779375
1!
#67784375
0!
#67784375
1"
#67789375
1!
#67794375
0"
#67794375
0!
#67799375
1!
#67804375
1"
#67804375
0!
#67808812
0"
#67813812
1!
#67818812
0!
#67818812
1"
#67823812
1!
#67828812
0!
#67828812
0"
#67833812
1!
#67838812
0!
#67843812
1!
#67848812
0!
#67848812
1"
#67853812
1!
#67858812
0!
#67863812
1!
#67868812
0!
#67873812
1!
#67878812
0!
#67883812
1!
#67888812
0"
#67888812
0!
#67893812
1!
#67898812
1"
#67898812
0!
#67902937
0"
#67907937
1!
#67912937
1"
#68952875
0"
#68957875
0!
#68961937
1"
#68966937
1!
#68971937
0!
#68976937
1!
#68981937
0!
#68981937
0"
#68986937
1!
#68991937
0!
#68991937
1"
#68996937
1!
#69001937
0!
#69001937
0"
#69006937
1!
#69011937
0!
#69016937
1!
#69021937
0!
#69026937
1!
#69031937
0!
#69036937
1!
#69041937
0!
#69046937
1!
#69051937
1"
#69051937
0!
#69056937
0"
#69061937
1!
#69066937
0!
#69071937
1!
#69076937
0!
#69081937
1!
#69086937
0!
#69091937
1!
#69096937
0!
#69096937
1"
#69101937
1!
#69106937
0!
#69111937
1!
#69116937
0!
#69121937
1!
#69126937
0!
#69126937
0"
#69131937
1!
#69136937
0!
#69141937
1!
#69146937
1"
#69146937
0!
#69151375
0"
#69156375
1!
#69161375
0!
#69161375
1"
#69166375
1!
#69171375
0!
#69171375
0"
#69176375
1!
#69181375
0!
#69181375
1"
#69186375
1!
#69191375
0!
#69191375
0"
#69196375
1!
#69201375
0!
#69201375
1"
#69206375
1!
#69211375
0!
#69211375
0"
#69216375
1!
#69221375
0!
#69221375
1"
#69226375
1!
#69231375
0"
#69231375
0!
#69236375
1!
#69241375
1"
#69241375
0!
#69245500
0"
#69250500
1!
#69255500
1"
#70296000
0"
#70301000
0!
#70305062
1"
#70310062
1!
#70315062
0!
#70320062
1!
#70325062
0!
#70325062
0"
#70330062
1!
#70335062
0!
#70335062
1"
#70340062
1!
#70345062
0!
#70345062
0"
#70350062
1!
#70355062
0!
#70360062
1!
#70365062
0!
#70370062
1!
#70375062
0!
#70380062
1!
#70385062
0!
#70390062
1!
#70395062
1"
#70395062
0!
#70400062
0"
#70405062
1!
#70410062
0!
#70415062
1!
#70420062
0!
#70425062
1!
#70430062
0!
#70435062
1!
#70440062
0!
#70440062
1"
#70445062
1!
#70450062
0!
#70455062
1!
#70460062
0!
#70465062
1!
#70470062
0!
#70475062
1!
#70480062
0"
#70480062
0!
#70485062
1!
#70490062
1"
#70490062
0!
#70494500
0"
#70499500
1!
#70504500
0!
#70504500
1"
#70509500
1!
#70514500
0!
#70514500
0"
#70519500
1!
#70524500
0!
#70524500
1"
#70529500
1!
#70534500
0!
#70534500
0"
#70539500
1!
#70544500
0!
#70549500
1!
#70554500
0!
#70554500
1"
#70559500
1!
#70564500
0!
#70569500
1!
#70574500
0"
#70574500
0!
#70579500
1!
#70584500
1"
#70584500
0!
#70588625
0"
#70593625
1!
#70598625
1"
#71638812
0"
#71643812
0!
#71647875
1"
#71652875
1!
#71657875
0!
#71662875
1!
#71667875
0!
#71667875
0"
#71672875
1!
#71677875
0!
#71677875
1"
#71682875
1!
#71687875
0!
#71687875
0"
#71692875
1!
#71697875
0!
#71702875
1!
#71707875
0!
#71712875
1!
#71717875
0!
#71722875
1!
#71727875
0!
#71732875
1!
#71737875
1"
#71737875
0!
#71742875
0"
#71747875
1!
#71752875
0!
#71757875
1!
#71762875
0!
#71767875
1!
#71772875
0!
#71772875
1"
#71777875
1!
#71782875
0!
#71782875
0"
#71787875
1!
#71792875
0!
#71797875
1!
#71802875
0!
#71807875
1!
#71812875
0!
#71817875
1!
#71822875
0!
#71827875
1!
#71832875
1"
#71832875
0!
#71837312
0"
#71842312
1!
#71847312
0!
#71852312
1!
#71857312
0!
#71857312
1"
#71862312
1!
#71867312
0!
#71867312
0"
#71872312
1!
#71877312
0!
#71877312
1"
#71882312
1!
#71887312
0!
#71892312
1!
#71897312
0!
#71897312
0"
#71902312
1!
#71907312
0!
#71907312
1"
#71912312
1!
#71917312
0"
#71917312
0!
#71922312
1!
#71927312
1"
#71927312
0!
#71931437
0"
#71936437
1!
#71941437
1"
#72984937
0"
#72989937
0!
#72994000
1"
#72999000
1!
#73004000
0!
#73009000
1!
#73014000
0!
#73014000
0"
#73019000
1!
#73024000
0!
#73024000
1"
#73029000
1!
#73034000
0!
#73034000
0"
#73039000
1!
#73044000
0!
#73049000
1!
#73054000
0!
#73059000
1!
#73064000
0!
#73069000
1!
#73074000
0!
#73079000
1!
#73084000
1"
#73084000
0!
#73089000
0"
#73094000
1!
#73099000
0!
#73104000
1!
#73109000
0!
#73114000
1!
#73119000
0!
#73119000
1"
#73124000
1!
#73129000
0!
#73129000
0"
#73134000
1!
#73139000
0!
#73144000
1!
#73149000
0!
#73154000
1!
#73159000
0!
#73159000
1"
#73164000
1!
#73169000
0"
#73169000
0!
#73174000
1!
#73179000
1"
#73179000
0!
#73183437
0"
#73188437
1!
#73193437
0!
#73193437
1"
#73198437
1!
#73203437
0!
#73203437
0"
#73208437
1!
#73213437
0!
#73213437
1"
#73218437
1!
#73223437
0!
#73223437
0"
#73228437
1!
#73233437
0!
#73238437
1!
#73243437
0!
#73248437
1!
#73253437
0!
#73258437
1!
#73263437
0!
#73268437
1!
#73273437
1"
#73273437
0!
#73277562
0"
#73282562
1!
#73287562
1"
#74327750
0"
#74332750
0!
#74336812
1"
#74341812
1!
#74346812
0!
#74351812
1!
#74356812
0!
#74356812
0"
#74361812
1!
#74366812
0!
#74366812
1"
#74371812
1!
#74376812
0!
#74376812
0"
#74381812
1!
#74386812
0!
#74391812
1!
#74396812
0!
#74401812
1!
#74406812
0!
#74411812
1!
#74416812
0!
#74421812
1!
#74426812
1"
#74426812
0!
#74431812
0"
#74436812
1!
#74441812
0!
#74446812
1!
#74451812
0!
#74456812
1!
#74461812
0!
#74461812
1"
#74466812
1!
#74471812
0!
#74471812
0"
#74476812
1!
#74481812
0!
#74486812
1!
#74491812
0!
#74491812
1"
#74496812
1!
#74501812
0!
#74501812
0"
#74506812
1!
#74511812
0!
#74516812
1!
#74521812
1"
#74521812
0!
#74526250
0"
#74531250
1!
#74536250
0!
#74536250
1"
#74541250
1!
#74546250
0!
#74546250
0"
#74551250
1!
#74556250
0!
#74561250
1!
#74566250
0!
#74566250
1"
#74571250
1!
#74576250
0!
#74581250
1!
#74586250
0!
#74586250
0"
#74591250
1!
#74596250
0!
#74601250
1!
#74606250
0!
#74611250
1!
#74616250
1"
#74616250
0!
#74620375
0"
#74625375
1!
#74630375
1"
#75670562
0"
#75675562
0!
#75679625
1"
#75684625
1!
#75689625
0!
#75694625
1!
#75699625
0!
#75699625
0"
#75704625
1!
#75709625
0!
#75709625
1"
#75714625
1!
#75719625
0!
#75719625
0"
#75724625
1!
#75729625
0!
#75734625
1!
#75739625
0!
#75744625
1!
#75749625
0!
#75754625
1!
#75759625
0!
#75764625
1!
#75769625
1"
#75769625
0!
#75774625
0"
#75779625
1!
#75784625
0!
#75789625
1!
#75794625
0!
#75799625
1!
#75804625
0!
#75804625
1"
#75809625
1!
#75814625
0!
#75814625
0"
#75819625
1!
#75824625
0!
#75829625
1!
#75834625
0!
#75834625
1"
#75839625
1!
#75844625
0!
#75849625
1!
#75854625
0"
#75854625
0!
#75859625
1!
#75864625
1"
#75864625
0!
#75869062
0"
#75874062
1!
#75879062
0!
#75879062
1"
#75884062
1!
#75889062
0!
#75889062
0"
#75894062
1!
#75899062
0!
#75904062
1!
#75909062
0!
#75914062
1!
#75919062
0!
#75919062
1"
#75924062
1!
#75929062
0!
#75929062
0"
#75934062
1!
#75939062
0!
#75939062
1"
#75944062
1!
#75949062
0"
#75949062
0!
#75954062
1!
#75959062
1"
#75959062
0!
#75963187
0"
#75968187
1!
#75973187
1"
#77016687
0"
#77021687
0!
#77025750
1"
#77030750
1!
#77035750
0!
#77040750
1!
#77045750
0!
#77045750
0"
#77050750
1!
#77055750
0!
#77055750
1"
#77060750
1!
#77065750
0!
#77065750
0"
#77070750
1!
#77075750
0!
#77080750
1!
#77085750
0!
#77090750
1!
#77095750
0!
#77100750
1!
#77105750
0!
#77110750
1!
#77115750
1"
#77115750
0!
#77120750
0"
#77125750
1!
#77130750
0!
#77135750
1!
#77140750
0!
#77145750
1!
#77150750
0!
#77150750
1"
#77155750
1!
#77160750
0!
#77160750
0"
#77165750
1!
#77170750
0!
#77170750
1"
#77175750
1!
#77180750
0!
#77180750
0"
#77185750
1!
#77190750
0!
#77195750
1!
#77200750
0!
#77205750
1!
#77210750
1"
#77210750
0!
#77215187
0"
#77220187
1!
#77225187
0!
#77225187
1"
#77230187
1!
#77235187
0!
#77235187
0"
#77240187
1!
#77245187
0!
#77250187
1!
#77255187
0!
#77260187
1!
#77265187
0!
#77270187
1!
#77275187
0!
#77280187
1!
#77285187
0!
#77285187
1"
#77290187
1!
#77295187
0"
#77295187
0!
#77300187
1!
#77305187
1"
#77305187
0!
#77309312
0"
#77314312
1!
#77319312
1"
#78359812
0"
#78364812
0!
#78368875
1"
#78373875
1!
#78378875
0!
#78383875
1!
#78388875
0!
#78388875
0"
#78393875
1!
#78398875
0!
#78398875
1"
#78403875
1!
#78408875
0!
#78408875
0"
#78413875
1!
#78418875
0!
#78423875
1!
#78428875
0!
#78433875
1!
#78438875
0!
#78443875
1!
#78448875
0!
#78453875
1!
#78458875
1"
#78458875
0!
#78463875
0"
#78468875
1!
#78473875
0!
#78478875
1!
#78483875
0!
#78488875
1!
#78493875
0!
#78493875
1"
#78498875
1!
#78503875
0!
#78503875
0"
#78508875
1!
#78513875
0!
#78513875
1"
#78518875
1!
#78523875
0!
#78523875
0"
#78528875
1!
#78533875
0!
#78533875
1"
#78538875
1!
#78543875
0"
#78543875
0!
#78548875
1!
#78553875
1"
#78553875
0!
#78558312
0"
#78563312
1!
#78568312
0!
#78568312
1"
#78573312
1!
#78578312
0!
#78578312
0"
#78583312
1!
#78588312
0!
#78588312
1"
#78593312
1!
#78598312
0!
#78598312
0"
#78603312
1!
#78608312
0!
#78613312
1!
#78618312
0!
#78618312
1"
#78623312
1!
#78628312
0!
#78633312
1!
#78638312
0"
#78638312
0!
#78643312
1!
#78648312
1"
#78648312
0!
#78652437
0"
#78657437
1!
#78662437
1"
#79702625
0"
#79707625
0!
#79711687
1"
#79716687
1!
#79721687
0!
#79726687
1!
#79731687
0!
#79731687
0"
#79736687
1!
#79741687
0!
#79741687
1"
#79746687
1!
#79751687
0!
#79751687
0"
#79756687
1!
#79761687
0!
#79766687
1!
#79771687
0!
#79776687
1!
#79781687
0!
#79786687
1!
#79791687
0!
#79796687
1!
#79801687
1"
#79801687
0!
#79806687
0"
#79811687
1!
#79816687
0!
#79821687
1!
#79826687
0!
#79831687
1!
#79836687
0!
#79836687
1"
#79841687
1!
#79846687
0!
#79846687
0"
#79851687
1!
#79856687
0!
#79856687
1"
#79861687
1!
#79866687
0!
#79871687
1!
#79876687
0!
#79876687
0"
#79881687
1!
#79886687
0!
#79891687
1!
#79896687
1"
#79896687
0!
#79901125
0"
#79906125
1!
#79911125
0!
#79911125
1"
#79916125
1!
#79921125
0!
#79921125
0"
#79926125
1!
#79931125
0!
#79936125
1!
#79941125
0!
#79946125
1!
#79951125
0!
#79951125
1"
#79956125
1!
#79961125
0!
#79961125
0"
#79966125
1!
#79971125
0!
#79971125
1"
#79976125
1!
#79981125
0"
#79981125
0!
#79986125
1!
#79991125
1"
#79991125
0!
#79995250
0"
#80000250
1!
#80005250
1"
#81048750
0"
#81053750
0!
#81057812
1"
#81062812
1!
#81067812
0!
#81072812
1!
#81077812
0!
#81077812
0"
#81082812
1!
#81087812
0!
#81087812
1"
#81092812
1!
#81097812
0!
#81097812
0"
#81102812
1!
#81107812
0!
#81112812
1!
#81117812
0!
#81122812
1!
#81127812
0!
#81132812
1!
#81137812
0!
#81142812
1!
#81147812
1"
#81147812
0!
#81152812
0"
#81157812
1!
#81162812
0!
#81167812
1!
#81172812
0!
#81177812
1!
#81182812
0!
#81182812
1"
#81187812
1!
#81192812
0!
#81192812
0"
#81197812
1!
#81202812
0!
#81202812
1"
#81207812
1!
#81212812
0!
#81217812
1!
#81222812
0!
#81227812
1!
#81232812
0"
#81232812
0!
#81237812
1!
#81242812
1"
#81242812
0!
#81247250
0"
#81252250
1!
#81257250
0!
#81262250
1!
#81267250
0!
#81267250
1"
#81272250
1!
#81277250
0!
#81277250
0"
#81282250
1!
#81287250
0!
#81287250
1"
#81292250
1!
#81297250
0!
#81302250
1!
#81307250
0!
#81307250
0"
#81312250
1!
#81317250
0!
#81317250
1"
#81322250
1!
#81327250
0"
#81327250
0!
#81332250
1!
#81337250
1"
#81337250
0!
#81341375
0"
#81346375
1!
#81351375
1"
#82391562
0"
#82396562
0!
#82400625
1"
#82405625
1!
#82410625
0!
#82415625
1!
#82420625
0!
#82420625
0"
#82425625
1!
#82430625
0!
#82430625
1"
#82435625
1!
#82440625
0!
#82440625
0"
#82445625
1!
#82450625
0!
#82455625
1!
#82460625
0!
#82465625
1!
#82470625
0!
#82475625
1!
#82480625
0!
#82485625
1!
#82490625
1"
#82490625
0!
#82495625
0"
#82500625
1!
#82505625
0!
#82510625
1!
#82515625
0!
#82520625
1!
